{
  "authors": [
    {
      "name": "Aymeric",
      "age": 28,
      "id": "1"
    },
    {
      "name":"Rinj",
      "age": 30,
      "id": "2"
    },
    {
      "name":"Arnaud",
      "age": 45,
      "id": "3"
    }
  ]
}
